*************** Key store ***************
alias: smarket
password: 123456789

*************** FCM ***************
email: smarket.simtot@gmail.com
Password: Mind@123

************** Stripe Account **************
email: smarket.simtot@gmail.com
password: Mind@123

***********Google Play Store account*****
login: sujeeth.manchikanti@gmail.com